<svg width="18" height="16" viewBox="0 0 18 16" fill="none" xmlns="http://www.w3.org/2000/svg">
<path d="M1.3314 8.0474L9 16L16.6686 8.0474C17.5211 7.1633 18 5.96429 18 4.71405C18 2.11055 15.9648 0 13.4543 0C12.2487 0 11.0925 0.49666 10.24 1.38071L9 2.66667L7.76 1.38071C6.90749 0.49666 5.75128 0 4.54569 0C2.03517 0 0 2.11055 0 4.71405C0 5.96429 0.47892 7.1633 1.3314 8.0474Z" fill="#06C167"/>
</svg>
